            ___     ___            __   __   ___             _____    ___     ___
    o O O  | __|   | _ \     o O O \ \ / /  |_ _|     o O O |_   _|  /   \   |_ _|
   o       | _|    |   /    o       \ V /    | |     o        | |    | - |    | |
  TS__[O]  |___|   |_|_\   TS__[O]  _|_|_   |___|   TS__[O]  _|_|_   |_|_|   |___|
 {======|_|"""""|_|"""""| {======|_| """ |_|"""""| {======|_|"""""|_|"""""|_|"""""|
./o--000'"`-0-0-'"`-0-0-'./o--000'"`-0-0-'"`-0-0-'./o--000'"`-0-0-'"`-0-0-'"`-0-0-'

################################################################################################################################
################################################################################################################################
##########################    ###########################                       ######################               ###########
############       ######       #########################                       #####################                      #####
###########       #######       #################      ##############################################                      #####
##########        ######               #########       ####                   ###########        ####                      #####
#########                              #########       ###                      ########          #####      ###       #########
#########                               ###########    ###      #########       #######            ####     ####       #########
########                                ##################                      ######      #       ###    #####       #########
########       ########        #################       ###############################      ##      ###     ####       #########
#######        ########        #################       ##                    #########      ###     ###      ###       #########
#######       #########        #################      ##                        ######      ###     ###                    #####
#########     #########        ################      ##        ##      ###       #####      ##      ###                    #####
#######################                 #######      ##                          #####      #       #####              #########
#########                                ######      ##                         ######             ####       ##       #########
#########                                ######      ##       ###      ###      #######           ####        ##       #########
#########                        ##############       ##                       ########          #####       ###       #########
#######################        ################                                ##########      ######        ###       #########
#######################        #################                       ##############################       ###         ########
#######################        ###################                     #############################        ##           #######
#########################      #################################################################################################
################################################################################################################################
################################################################################################################################

█▀▀▀▀▀▀▀██▀██▀▀▀█▀█▀▀▀▀▀▀▀█
█ █▀▀▀█ █▀▀ ▄   ███ █▀▀▀█ █
█ █   █ ██▄ ▄██ ▀ █ █   █ █
█ ▀▀▀▀▀ █▀▄▀█▀▄ █ █ ▀▀▀▀▀ █
█▀▀▀█▀▀▀▀ ▄ ▀ █ ▀ ▀▀███▀███
█ █▀▄▀▀▀▄▄▀▄▄██▀▀▄  █▄▀ █▄█
█▄▀▀▄▄▀▀▀▀██▀▀▀▀▀█▄▄ ██▄▀▀█
█▀█▀▄▄▀▀▀▄▄█▀█▀▀▀▀▀   ▀▀▄▄█
█▀▄ ▄▄█▀ ▄█  ▀▀▄▀  ▀  ▄▄▀▀█
█▀▀▀▀▀▀▀█ ▀▄ ▀ █▄ █▀█ ▀▀ ▄█
█ █▀▀▀█ █ ▀ █ █   ▀▀▀  ▄█▄█
█ █   █ █▀▄▀▀ ▀▄▀▀ ▄█▄▀ █▀█
█ ▀▀▀▀▀ █ ▄ ▀ █▀ ▄ ▄▀▀█▄ ▀█
▀▀▀▀▀▀▀▀▀▀▀▀▀▀▀▀▀▀▀▀▀▀▀▀▀▀▀
