@startuml
'https://plantuml.com/sequence-diagram

[*] --> 项目启动

state 项目管理 {
    state 项目启动事件 <<inputPin>>
    state 项目启动事件通知  <<outputPin>>
    项目启动 --> 项目启动事件
    项目启动事件 --> 项目已启动
    项目已启动 --> 项目启动事件通知

    state 需求内容审核事件 <<inputPin>>
    state 经办人需求内容审核通知 <<outputPin>>
    需求内容审核事件 --> 告知经办人
    告知经办人 --> 经办人需求内容审核通知

    state 需求内容审核结果事件  <<inputPin>>
    需求内容审核结果事件 --> 审核通过
    需求内容审核结果事件 --> 审核驳回

    state 需求评审通过事件通知  <<outputPin>>
    审核通过 --> 需求评审通过事件通知
    state 需求评审审驳事件通知  <<outputPin>>
    审核驳回 --> 需求评审审驳事件通知

    state 待技术评审事件  <<inputPin>>
    待技术评审事件 --> 通知所有人参加技术评审
    通知所有人参加技术评审 --> [*]


'待技术评审事件通知

}

state 需求过程 {
    state 需求评审事件 <<inputPin>>
    state 需求内容审核通知 <<outputPin>>
    项目启动事件通知 --> 需求评审事件
    需求评审事件 --> 需求评审会议完成
    需求评审会议完成 --> 需求内容审核通知
    需求内容审核通知 --> 需求内容审核事件

    state 需求评审驳回事件 <<inputPin>>
    需求评审审驳事件通知 --> 需求评审驳回事件
    需求评审驳回事件 --> 需求评审会议完成

}

state 开发过程 {
    state 需求评审通过事件 <<inputPin>>
    state 待技术评审事件通知 <<outputPin>>
    需求评审通过事件通知 --> 需求评审通过事件
    需求评审通过事件 --> 技术方案讨论完成
    技术方案讨论完成 --> 待技术评审事件通知
    待技术评审事件通知 --> 待技术评审事件

    state 经办人需求内容审核事件 <<inputPin>>
    state 经办人需求内容审核结果事件通知 <<outputPin>>
    经办人需求内容审核通知 --> 经办人需求内容审核事件
    经办人需求内容审核事件 --> 经办人审批需求内容完成
    经办人审批需求内容完成 --> 经办人需求内容审核结果事件通知
    经办人需求内容审核结果事件通知 --> 需求内容审核结果事件

    state 需求内容审核事件 <<inputPin>>

}



@enduml